id,name,model_id:id,group_id:id,perm_read,perm_write,perm_create,perm_unlink
access_appstudy_cursos,appstudy.appstudy,model_appstudy_cursos,,1,1,1,1
access_appstudy_quiz,appstudy.quiz,model_appstudy_quiz,,1,1,1,1
access_appstudy_question,appstudy.Question,model_appstudy_pregun,,1,1,1,1

access_appstudy_alternativa,appstudy.Alternativa,model_appstudy_alt,,1,1,1,1